{
  "swfs": [
    {
      "location": "logo-anim.swf",
      "title": "Ruffle Logo",
      "author": "Ruffle contributors",
      "authorLink": "https://ruffle.rs",
      "config": {
        "autoplay": "on",
        "backgroundColor": "#31497D",
        "letterbox": "off",
        "unmuteOverlay": "hidden",
        "forceScale": false,
        "forceAlign": false
      }
    },
    {
      "location": "swfs/1.swf",
      "title": "Breaking the Bank",
      "author": "Puffballs United",
      "authorLink": "https://puffballsunited.newgrounds.com/",
      "type": "Game"
    },
    {
      "location": "swfs/2.swf",
      "title": "Escaping the Prison",
      "author": "Puffballs United",
      "authorLink": "https://puffballsunited.newgrounds.com/",
      "type": "Game"
    },
    {
      "location": "swfs/3.swf",
      "title": "Stealing the Diamond",
      "author": "Puffballs United",
      "authorLink": "https://puffballsunited.newgrounds.com/",
      "type": "Game"
    },
    {
      "location": "swfs/4.swf",
      "title": "Infiltrating the Airship",
      "author": "Puffballs United",
      "authorLink": "https://puffballsunited.newgrounds.com/",
      "type": "Game"
    },

    {
      "location": "swfs/5.swf",
      "title": "Fleeing the Complex",
      "author": "Puffballs United",
      "authorLink": "https://puffballsunited.newgrounds.com/",
      "type": "Game"
    }
  ]
}
